----------------------------------------------
Device | 09:00.0
----------------------------------------------
Current Configuration
----------------------------------------------
UUID   | 9d37b932ed73bf1ed7210ee61f2da926
----------------------------------------------
Incoming Configuration
----------------------------------------------
UUID      | 9d37b932ed73bf1ed7210ee61f2da926
Path      | /path/path/design.pdi
Partition | 0
----------------------------------------------
Are you sure you wish to proceed? [Y/n]: 
Aborting...
